{
  "formatVersion": 1,
  "database": {
    "version": 2,
    "identityHash": "a5bc3b031b00dacb306c527001ed43da",
    "entities": [
      {
        "tableName": "notes",
        "createSql": "CREATE TABLE IF NOT EXISTS `${TABLE_NAME}` (`id` TEXT NOT NULL, `content` TEXT NOT NULL, `creation_time` INTEGER NOT NULL, `edition_time` INTEGER NOT NULL, PRIMARY KEY(`id`))",
        "fields": [
          {
            "fieldPath": "uid",
            "columnName": "id",
            "affinity": "TEXT",
            "notNull": true
          },
          {
            "fieldPath": "content",
            "columnName": "content",
            "affinity": "TEXT",
            "notNull": true
          },
          {
            "fieldPath": "creationTime",
            "columnName": "creation_time",
            "affinity": "INTEGER",
            "notNull": true
          },
          {
            "fieldPath": "editionTime",
            "columnName": "edition_time",
            "affinity": "INTEGER",
            "notNull": true
          }
        ],
        "primaryKey": {
          "columnNames": [
            "id"
          ],
          "autoGenerate": false
        },
        "indices": [],
        "foreignKeys": []
      }
    ],
    "setupQueries": [
      "CREATE TABLE IF NOT EXISTS room_master_table (id INTEGER PRIMARY KEY,identity_hash TEXT)",
      "INSERT OR REPLACE INTO room_master_table (id,identity_hash) VALUES(42, \"a5bc3b031b00dacb306c527001ed43da\")"
    ]
  }
}